<svg width="262" height="51" viewBox="0 0 262 51" fill="none" xmlns="http://www.w3.org/2000/svg">
<g clip-path="url(#clip0_1_133)">
<path d="M113.973 12.5861V23.4023C110.102 22.8778 105.837 24.7789 105.837 30.0886V40.1837H95.7977V13.1105H105.837V18.3547C106.887 14.6182 110.102 12.5861 113.973 12.5861Z" fill="#EB5624"/>
<path d="M140.285 31.5308C140.285 38.8727 133.198 40.9048 128.08 40.9048C122.044 40.9048 117.582 39.3316 115.417 34.4807L124.143 30.6131C124.931 32.6452 126.177 33.3663 128.015 33.3663C129.13 33.3663 129.852 32.9074 129.852 32.1863C129.852 29.4987 116.794 31.5963 116.794 21.6979C116.794 15.4048 122.569 12.3894 128.015 12.3894C133.395 12.3894 137.594 14.0938 139.76 19.2724L131.492 22.2223C130.77 20.5835 129.655 19.928 128.474 19.928C127.358 19.928 126.768 20.3868 126.768 21.0424C126.702 23.7956 140.285 20.9768 140.285 31.5308Z" fill="#EB5624"/>
<path d="M171.714 13.1105V40.1837H161.675V37.7583C160.035 39.7904 157.672 40.9704 154.392 40.9704C147.043 40.9704 141.991 34.874 141.991 26.6799C141.991 18.4858 147.043 12.3894 154.392 12.3894C157.672 12.3894 160.035 13.5694 161.675 15.6015V13.1105H171.714ZM161.741 26.6143C161.741 23.73 159.838 21.5012 156.951 21.5012C153.998 21.5012 152.161 23.73 152.161 26.6143C152.161 29.4987 154.064 31.7275 156.951 31.7275C159.838 31.7275 161.741 29.4987 161.741 26.6143Z" fill="#EB5624"/>
<path d="M205.703 13.1106L196.516 40.1183C193.826 47.9846 188.315 51.3934 179.129 51.0001V41.4949C182.672 41.4949 184.509 41.1016 185.69 39.5939L174.798 13.1106H186.149L190.939 27.5322L194.22 13.1106H205.703Z" fill="#EB5624"/>
<path d="M202.684 34.7429C202.684 31.2686 205.44 28.5154 208.918 28.5154C212.395 28.5154 215.151 31.2686 215.151 34.7429C215.151 38.2172 212.395 40.9704 208.918 40.9704C205.44 40.9704 202.684 38.2172 202.684 34.7429Z" fill="#EB5624"/>
<path d="M218.694 5.50643C218.694 2.55655 221.253 0 224.272 0C227.224 0 229.783 2.55655 229.783 5.50643C229.783 8.4563 227.224 11.0129 224.272 11.0129C221.253 11.0129 218.694 8.52185 218.694 5.50643ZM219.219 13.1105H229.258V40.1838H219.219V13.1105Z" fill="#EB5624"/>
<path d="M262 2.29431V40.1838H251.961V37.7583C250.321 39.7905 247.958 40.9704 244.678 40.9704C237.329 40.9704 232.276 34.874 232.276 26.6799C232.276 18.4858 237.329 12.3894 244.678 12.3894C247.958 12.3894 250.321 13.5694 251.961 15.6015V2.29431H262ZM251.961 26.6144C251.961 23.73 250.058 21.5013 247.171 21.5013C244.218 21.5013 242.381 23.73 242.381 26.6144C242.381 29.4987 244.284 31.7275 247.171 31.7275C250.058 31.7275 251.961 29.4987 251.961 26.6144Z" fill="#EB5624"/>
<path d="M82.3465 13.1106V27.0078C82.3465 29.6299 81.0998 31.2687 78.6721 31.2687C76.638 31.2687 75.3257 30.0887 75.3257 27.6633V13.1106H66.5334C68.0425 15.9294 68.8955 19.1414 68.8955 22.4846C68.8955 26.4178 67.78 30.0232 65.746 33.1697C66.9927 38.4795 70.5359 40.9049 75.0633 40.9049C78.2128 40.9049 80.7062 39.725 82.3465 37.4962V40.1183H92.3856V13.1106H82.3465Z" fill="#EB5624"/>
<path d="M47.3739 3.01538C36.1537 3.01538 27.0333 11.7339 27.0333 22.4845C27.0333 25.3033 27.6238 27.991 28.8049 30.3509C29.0673 30.8753 27.3614 36.6439 26.2459 40.6426C25.8522 41.8881 27.2301 43.0025 28.4112 42.2814C31.4295 40.5115 35.432 38.2172 35.9569 38.5449C39.2376 40.7082 43.1745 41.9537 47.4395 41.9537C58.6596 41.9537 67.7801 33.2352 67.7801 22.4845C67.7145 11.7339 58.594 3.01538 47.3739 3.01538ZM48.3581 34.0874C42.7808 34.0874 38.1878 29.7609 38.1878 24.3856C38.1878 19.0102 42.7152 14.6838 48.3581 14.6838C53.9354 14.6838 58.5284 19.0102 58.5284 24.3856C58.4628 29.7609 53.9354 34.0874 48.3581 34.0874Z" fill="url(#paint0_linear_1_133)"/>
<path d="M65.6149 23.9267C65.6149 32.7108 58.2004 39.7905 49.0143 39.7905C39.8282 39.7905 32.4138 32.7108 32.4138 23.9267C32.4138 15.1427 39.8282 8.06299 49.0143 8.06299C58.2004 8.06299 65.6149 15.1427 65.6149 23.9267ZM48.3582 14.6838C42.7809 14.6838 38.1879 19.0103 38.1879 24.3856C38.1879 29.7609 42.7153 34.0874 48.3582 34.0874C53.9354 34.0874 58.5285 29.7609 58.5285 24.3856C58.4628 19.0103 53.9354 14.6838 48.3582 14.6838Z" fill="url(#paint1_linear_1_133)"/>
<path d="M25.8522 22.4846C25.8522 19.0759 26.7052 15.9294 28.2144 13.1106H19.4876L16.2069 27.5322L11.417 13.1106H0L10.8264 39.6594C9.64538 41.1672 7.87378 41.5605 4.26496 41.5605V51.0001C13.451 51.3934 18.9627 47.9846 21.6529 40.1183L26.2459 26.6145C25.9835 25.2378 25.8522 23.8612 25.8522 22.4846Z" fill="#EB5624"/>
</g>
<defs>
<linearGradient id="paint0_linear_1_133" x1="30.1777" y1="30.8121" x2="103.861" y2="-5.0065" gradientUnits="userSpaceOnUse">
<stop stop-color="#F15A29"/>
<stop offset="0.3455" stop-color="#F7941D"/>
</linearGradient>
<linearGradient id="paint1_linear_1_133" x1="58.0882" y1="12.651" x2="38.8398" y2="36.556" gradientUnits="userSpaceOnUse">
<stop stop-color="#F15A29"/>
<stop offset="0.1266" stop-color="#F4742E"/>
<stop offset="0.3882" stop-color="#F99F3A"/>
<stop offset="0.5131" stop-color="#FBB040"/>
</linearGradient>
<clipPath id="clip0_1_133">
<rect width="262" height="51" fill="white"/>
</clipPath>
</defs>
</svg>
